{
  "$schema": "https://unpkg.com/@changesets/config@2.3.0/schema.json",
  "changelog": "@changesets/changelog-git",
  "commit": false,
  "fixed": [],
  "linked": [["@openstapps/*"]],
  "access": "restricted",
  "baseBranch": "develop",
  "updateInternalDependencies": "patch",
  "ignore": []
}
