{
  "data": [
    {
      "uid": "2ae9f707-c9d3-5bc6-bfbc-734dbd148336",
      "identifiers": {
        "LSF": "336024"
      },
      "catalogs": [
        {
          "categories": ["university events"],
          "identifiers": {
            "LSF": "85523"
          },
          "level": 2,
          "name": "Fremdsprachen",
          "type": "catalog",
          "uid": "004a2be2-efad-5d14-8b6b-88701651c3fd"
        }
      ],
      "origin": {
        "indexed": "2059-06-03T10:10:13.841Z",
        "name": "Goethe-Uni QIS / LSF",
        "type": "remote"
      },
      "name": "UNIcert (Test)",
      "organizers": [
        {
          "familyName": "Guzmán",
          "gender": "female",
          "givenName": "Evelyn",
          "identifiers": {
            "LSF": "15239"
          },
          "jobTitles": ["ISZ-Bereich Fremdsprachen - Wissenschaftliche Mitarbeiter*innen"],
          "name": "Evelyn Guzmán",
          "type": "person",
          "uid": "6cd47b1f-485a-50be-8ca6-7ebe71729b7d"
        }
      ],
      "originalCategory": "Übung",
      "categories": ["exercise"],
      "type": "academic event",
      "academicTerms": [
        {
          "acronym": "WiSe 2058/59",
          "alternateNames": ["Winter 2058/59"],
          "endDate": "2059-03-31T21:59:59.999Z",
          "eventsEndDate": "2059-02-18T22:59:59.999Z",
          "eventsStartDate": "2021-10-17T22:00:00.000Z",
          "name": "Wintersemester 2021/22",
          "startDate": "2021-09-30T22:00:00.000Z",
          "type": "semester",
          "uid": "049ab143-8b77-5dcc-95e9-8bb6755f3db4"
        }
      ]
    },
    {
      "uid": "d65576a9-da8a-5c3f-828d-ef8fb749b47e",
      "identifiers": {
        "LSF": "333339"
      },
      "catalogs": [
        {
          "categories": ["university events"],
          "identifiers": {
            "LSF": "90887"
          },
          "level": 3,
          "name": "Empirische Forschungsmethoden II - Vertiefung (EW-BA 7)",
          "type": "catalog",
          "uid": "cc509f14-1a54-5500-a48e-57c1965aac09"
        },
        {
          "categories": ["university events"],
          "identifiers": {
            "LSF": "88474"
          },
          "level": 3,
          "name": "Empirische Forschungsverfahren und ihre Anwendung (alt) / Empirische Foschungsmethoden II - Vertiefung (neu) (EW-BA 7)",
          "type": "catalog",
          "uid": "6d7018f8-8a7c-50ff-9504-c5ec3c978e8b"
        },
        {
          "categories": ["university events"],
          "identifiers": {
            "LSF": "91137"
          },
          "level": 1,
          "name": "Pädagogik der Elementar- und Primarstufe",
          "type": "catalog",
          "uid": "991c01fa-674f-58c1-add8-54317fee2c27"
        }
      ],
      "origin": {
        "indexed": "2059-06-03T10:08:49.850Z",
        "name": "Goethe-Uni QIS / LSF",
        "type": "remote"
      },
      "name": "EW-BA7-quantitativ: Test- und Fragebogenkonstruktion",
      "organizers": [
        {
          "familyName": "Jurecka",
          "gender": "female",
          "givenName": "Astrid",
          "honorificPrefix": "Dr.",
          "identifiers": {
            "LSF": "10608"
          },
          "jobTitles": [
            "Institut für Pädagogik der Elementar- und Primarstufe (WE II) - Wissenschaftliche Mitarbeiter*innen"
          ],
          "name": "Astrid Jurecka",
          "type": "person",
          "uid": "92ad2023-5c9d-5fcf-8c42-58b476ae24ba"
        }
      ],
      "originalCategory": "Seminar",
      "categories": ["seminar"],
      "type": "academic event",
      "academicTerms": [
        {
          "acronym": "SoSe 2059",
          "alternateNames": ["Sommer 2059"],
          "endDate": "2059-09-30T21:59:59.999Z",
          "eventsEndDate": "2059-07-15T21:59:59.999Z",
          "eventsStartDate": "2059-04-10T22:00:00.000Z",
          "name": "Sommersemester 2059",
          "startDate": "2059-03-31T22:00:00.000Z",
          "type": "semester",
          "uid": "4b2766cb-e16d-5698-b5b3-e650613d497a"
        }
      ]
    }
  ],
  "facets": [
    {
      "buckets": [
        {
          "count": 2,
          "key": "academic event"
        }
      ],
      "field": "type"
    },
    {
      "buckets": [
        {
          "count": 1,
          "key": "WiSe 2058/59"
        },
        {
          "count": 1,
          "key": "SoSe 2059"
        }
      ],
      "field": "academicTerms.acronym",
      "onlyOnType": "academic event"
    },
    {
      "buckets": [
        {
          "count": 2,
          "key": "university events"
        }
      ],
      "field": "catalogs.categories",
      "onlyOnType": "academic event"
    },
    {
      "buckets": [
        {
          "count": 17,
          "key": "seminar"
        },
        {
          "count": 3,
          "key": "exercise"
        },
        {
          "count": 3,
          "key": "practicum"
        },
        {
          "count": 2,
          "key": "special"
        },
        {
          "count": 1,
          "key": "lecture"
        },
        {
          "count": 1,
          "key": "tutorial"
        }
      ],
      "field": "categories",
      "onlyOnType": "academic event"
    }
  ],
  "pagination": {
    "count": 2,
    "offset": 0,
    "total": 2
  },
  "stats": {
    "time": 69
  }
}
