{
  "*": {
    "filter": {
      "arguments": {
        "filters": [
          {
            "arguments": {
              "field": "type",
              "value": "date series"
            },
            "type": "value"
          },
          {
            "arguments": {
              "field": "event.uid"
            },
            "type": "value"
          }
        ],
        "operation": "and"
      },
      "type": "boolean"
    }
  }
}
