{
  "1": {
    "data": [
      {
        "duration": "PT2H0M0S",
        "uid": "f50aab9a-ce14-57e2-a3f1-e0d2da600bb7",
        "repeatFrequency": "P1W",
        "identifiers": {
          "LSF": "797371"
        },
        "origin": {
          "indexed": "2059-06-03T10:08:50.850Z",
          "name": "Goethe-Uni QIS / LSF",
          "type": "remote"
        },
        "name": "Seminar",
        "dates": [
          "2059-04-14T12:00:00+02:00",
          "2059-04-21T12:00:00+02:00",
          "2059-04-28T12:00:00+02:00",
          "2059-05-05T12:00:00+02:00",
          "2059-05-12T12:00:00+02:00",
          "2059-05-19T12:00:00+02:00",
          "2059-06-02T12:00:00+02:00",
          "2059-06-09T12:00:00+02:00",
          "2059-06-23T12:00:00+02:00",
          "2059-06-30T12:00:00+02:00",
          "2059-07-07T12:00:00+02:00",
          "2059-07-14T12:00:00+02:00"
        ],
        "event": {
          "categories": ["seminar"],
          "identifiers": {
            "LSF": "333339"
          },
          "name": "EW-BA7-quantitativ: Test- und Fragebogenkonstruktion",
          "originalCategory": "Seminar",
          "type": "academic event",
          "uid": "d65576a9-da8a-5c3f-828d-ef8fb749b47e"
        },
        "type": "date series",
        "inPlace": {
          "alternateNames": ["SH 1.106"],
          "categories": ["learn", "education"],
          "geo": {
            "point": {
              "coordinates": [8.66836, 50.12927],
              "type": "Point"
            },
            "polygon": {
              "coordinates": [
                [
                  [8.668371140956877, 50.12907297255887],
                  [8.668247759342194, 50.12942717952356],
                  [8.668864667415619, 50.129513151692436],
                  [8.668977320194244, 50.1291692620903],
                  [8.668371140956877, 50.12907297255887]
                ]
              ],
              "type": "Polygon"
            }
          },
          "identifiers": {
            "LSF": "7340"
          },
          "name": "SH 1.106",
          "type": "room",
          "uid": "56e6632a-415a-542f-93a1-69adf34d5d0c"
        }
      },
      {
        "duration": "PT2H0M0S",
        "uid": "b572671f-c713-5f1e-ab2b-d0e6b54091a8",
        "repeatFrequency": "P1W",
        "identifiers": {
          "LSF": "770743"
        },
        "origin": {
          "indexed": "2059-06-03T10:08:50.848Z",
          "name": "Goethe-Uni QIS / LSF",
          "type": "remote"
        },
        "name": "Seminar",
        "dates": [
          "2059-04-14T12:00:00+02:00",
          "2059-04-21T12:00:00+02:00",
          "2059-04-28T12:00:00+02:00",
          "2059-05-05T12:00:00+02:00",
          "2059-05-12T12:00:00+02:00",
          "2059-05-19T12:00:00+02:00",
          "2059-06-02T12:00:00+02:00",
          "2059-06-09T12:00:00+02:00",
          "2059-06-23T12:00:00+02:00",
          "2059-06-30T12:00:00+02:00",
          "2059-07-07T12:00:00+02:00",
          "2059-07-14T12:00:00+02:00"
        ],
        "event": {
          "categories": ["seminar"],
          "identifiers": {
            "LSF": "333339"
          },
          "name": "EW-BA7-quantitativ: Test- und Fragebogenkonstruktion",
          "originalCategory": "Seminar",
          "type": "academic event",
          "uid": "d65576a9-da8a-5c3f-828d-ef8fb749b47e"
        },
        "type": "date series",
        "inPlace": {
          "alternateNames": ["PEG 2G 089", "PC-Pool / Seminar"],
          "categories": ["computer"],
          "geo": {
            "point": {
              "coordinates": [8.66919, 50.12834],
              "type": "Point"
            },
            "polygon": {
              "coordinates": [
                [
                  [8.66911545395851, 50.128080835212074],
                  [8.668997436761854, 50.128419574192236],
                  [8.668603152036665, 50.1283851845574],
                  [8.668450266122816, 50.128827089483565],
                  [8.669802099466322, 50.129014510963145],
                  [8.670357316732405, 50.128266540127555],
                  [8.66911545395851, 50.128080835212074]
                ]
              ],
              "type": "Polygon"
            }
          },
          "identifiers": {
            "LSF": "6086"
          },
          "name": "PEG 2.G 089",
          "type": "room",
          "uid": "25dbedd7-0471-536d-8e48-e9d21ccea172"
        }
      }
    ],
    "facets": [
      {
        "buckets": [
          {
            "count": 2,
            "key": "date series"
          }
        ],
        "field": "type"
      },
      {
        "buckets": [
          {
            "count": 2,
            "key": "seminar"
          }
        ],
        "field": "event.categories",
        "onlyOnType": "date series"
      },
      {
        "buckets": [
          {
            "count": 1,
            "key": "computer"
          },
          {
            "count": 1,
            "key": "education"
          },
          {
            "count": 1,
            "key": "learn"
          }
        ],
        "field": "inPlace.categories",
        "onlyOnType": "date series"
      }
    ],
    "pagination": {
      "count": 2,
      "offset": 0,
      "total": 2
    },
    "stats": {
      "time": 17
    }
  },
  "0": {
    "data": [
      {
        "duration": "PT1H0M0S",
        "uid": "c010f7d6-5a32-522a-8316-045e032ea25e",
        "identifiers": {
          "LSF": "779352"
        },
        "origin": {
          "indexed": "2059-06-03T10:10:13.842Z",
          "name": "Goethe-Uni QIS / LSF",
          "type": "remote"
        },
        "name": "Übung",
        "dates": ["2059-01-19T14:00:00+01:00"],
        "event": {
          "categories": ["exercise"],
          "identifiers": {
            "LSF": "336024"
          },
          "name": "UNIcert (Test)",
          "originalCategory": "Übung",
          "type": "academic event",
          "uid": "2ae9f707-c9d3-5bc6-bfbc-734dbd148336"
        },
        "type": "date series",
        "inPlace": {
          "alternateNames": ["H I", "Hörsaal I"],
          "categories": ["learn", "education"],
          "geo": {
            "point": {
              "coordinates": [8.64988, 50.11825],
              "type": "Point"
            },
            "polygon": {
              "coordinates": [
                [
                  [8.650173693895338, 50.11768192973537],
                  [8.649645298719406, 50.1177214866573],
                  [8.649690896272658, 50.11794334878755],
                  [8.649795502424238, 50.11793646935709],
                  [8.649822324514389, 50.11810845482188],
                  [8.64978477358818, 50.118110174673404],
                  [8.649827688932419, 50.11833375484596],
                  [8.650490194559096, 50.11828559920474],
                  [8.650428503751753, 50.11806029895402],
                  [8.65011468529701, 50.11808265704158],
                  [8.650082498788832, 50.11792615020954],
                  [8.650203198194502, 50.117914111201316],
                  [8.650173693895338, 50.11768192973537]
                ]
              ],
              "type": "Polygon"
            }
          },
          "identifiers": {
            "LSF": "706"
          },
          "name": "H I (Vorbelegungsrecht Kunstgeschichte)",
          "type": "room",
          "uid": "07ccd06f-2f58-52ce-bcdd-2341f79b5893"
        }
      }
    ],
    "facets": [
      {
        "buckets": [
          {
            "count": 1,
            "key": "date series"
          }
        ],
        "field": "type"
      },
      {
        "buckets": [
          {
            "count": 1,
            "key": "exercise"
          }
        ],
        "field": "event.categories",
        "onlyOnType": "date series"
      },
      {
        "buckets": [
          {
            "count": 1,
            "key": "education"
          },
          {
            "count": 1,
            "key": "learn"
          }
        ],
        "field": "inPlace.categories",
        "onlyOnType": "date series"
      }
    ],
    "pagination": {
      "count": 1,
      "offset": 0,
      "total": 1
    },
    "stats": {
      "time": 5
    }
  }
}
