{
  "filter": {
    "type": "boolean",
    "arguments": {
      "filters": [
        {
          "type": "value",
          "arguments": {
            "field": "type",
            "value": "message"
          }
        }
      ],
      "operation": "and"
    }
  }
}
