{
  "data": [
    {
      "uid": "catalog",
      "superCatalogs": [
        {
          "categories": ["university events"],
          "identifiers": {
            "LSF": "88418"
          },
          "level": 0,
          "name": "FB 1 - Rechtswissenschaft",
          "type": "catalog",
          "uid": "401169e8-92d8-575b-8fa9-bf49ede63b0e",
          "description": "Das stets aktuelle Vorlesungsverzeichnis des Fachbereichs Rechtswissenschaft finden Sie hier! Ein Ausdruck mit allen aktuellen Änderungen hängt außerdem vor dem Dekanat des Fachbereichs (1. OG, Gebäude RuW) aus. Nähere Informationen über den Aufbau des Studiums der Rechtswissenschaft erhalten Sie über unsere Studien- und Prüfungsordnung, die Sie im Dekanat bekommen. Das gedruckte VORLESUNGSVERZEICHNIS kann zudem während der Öffnungszeiten im Hörsaalgebäude am Verkaufsstand der Buchhandlung Hector erworben werden.\n\nDas Veranstaltungsangebot orientiert sich am Studienplan des Fachbereichs Rechtswissenschaft. Die Lehrveranstaltungen beginnen in der ersten Vorlesungswoche. Die Pflichtveranstaltungen enden an unserem Fachbereich\neine Woche vor Vorlesungsende\n, anschließend beginnt die zweiwöchige Klausurenphase.\n\nDie wöchentlichen Veranstaltungen im Schwerpunktbereichsstudium enden bereits zwei Wochen vor dem allgemeinen Vorlesungsende der Universität. Anschließend werden Blockveranstaltungen angeboten.\n\nAchtung:\nIm Schwerpunktbereichsstudium dürfen insgesamt nur maximal zwei rechtsmedizinische und arztrechtliche Veranstaltungen des Insituts für Rechtsmedizin zur Erbringung des Pflichtprogramms gem. § 25 Abs. 3 genutzt werden!\n\n\n\n\n \n\nFür Studienanfänger wird eine spezielle dreitägige Orientierungsveranstaltung in der Woche vor Vorlesungsbeginn angeboten; Einzelheiten hierzu werden brieflich mitgeteilt. Für Fragen und Sorgen steht die Studienberatung des Fachbereichs für Studierende aller Semester zur Verfügung und zwar während der Vorlesungszeit Mo, Di, Do, 9.30-11.30 Uhr und Mi, 9.30-11.30 und 13.30-15.30 Uhr in den Räumen des Dekanats, für Berufstätige nach Vereinbarung.\nIn der vorlesungsfreien Zeit ausschließlich Mi 9.30-11.30 Uhr!\n\nDer Fachbereich bietet einen Aufbaustudiengang für im Ausland graduierte Juristinnen und Juristen (LL.M.), einen Aufbaustudiengang \"Europäisches und Internationales Wirtschaftsrecht\" (LL.M. Eur.), einen Weiterbildungsstudiengang \"Law and Finance\" (LL.M. Finance), ein Masterprogramm \"LL.M. Legal Theory\" sowie zusammen mit der Universität Lumière Lyon II das Studienprogramm zum französischen Recht \"Diplôme Universitaire de Droit Français\" (DUDF) an. Veranstaltungen zu den Studiengängen siehe Vorlesungsverzeichnis und Aushänge."
        }
      ],
      "level": 1,
      "academicTerm": {
        "acronym": "SoSe 2022",
        "alternateNames": ["Sommer 2022"],
        "endDate": "2022-09-30T21:59:59.999Z",
        "eventsEndDate": "2022-07-15T21:59:59.999Z",
        "eventsStartDate": "2022-04-10T22:00:00.000Z",
        "name": "Sommersemester 2022",
        "startDate": "2022-03-31T22:00:00.000Z",
        "type": "semester",
        "uid": "4b2766cb-e16d-5698-b5b3-e650613d497a"
      },
      "identifiers": {
        "LSF": "88412"
      },
      "origin": {
        "indexed": "2022-06-03T10:08:42.803Z",
        "name": "Goethe-Uni QIS / LSF",
        "type": "remote"
      },
      "name": "Studium der Pflichtfächer (1. bis 5. Semester)",
      "categories": ["university events"],
      "type": "catalog",
      "superCatalog": {
        "categories": ["university events"],
        "identifiers": {
          "LSF": "88418"
        },
        "level": 0,
        "name": "FB 1 - Rechtswissenschaft",
        "type": "catalog",
        "uid": "401169e8-92d8-575b-8fa9-bf49ede63b0e",
        "description": "Das stets aktuelle Vorlesungsverzeichnis des Fachbereichs Rechtswissenschaft finden Sie hier! Ein Ausdruck mit allen aktuellen Änderungen hängt außerdem vor dem Dekanat des Fachbereichs (1. OG, Gebäude RuW) aus. Nähere Informationen über den Aufbau des Studiums der Rechtswissenschaft erhalten Sie über unsere Studien- und Prüfungsordnung, die Sie im Dekanat bekommen. Das gedruckte VORLESUNGSVERZEICHNIS kann zudem während der Öffnungszeiten im Hörsaalgebäude am Verkaufsstand der Buchhandlung Hector erworben werden.\n\nDas Veranstaltungsangebot orientiert sich am Studienplan des Fachbereichs Rechtswissenschaft. Die Lehrveranstaltungen beginnen in der ersten Vorlesungswoche. Die Pflichtveranstaltungen enden an unserem Fachbereich\neine Woche vor Vorlesungsende\n, anschließend beginnt die zweiwöchige Klausurenphase.\n\nDie wöchentlichen Veranstaltungen im Schwerpunktbereichsstudium enden bereits zwei Wochen vor dem allgemeinen Vorlesungsende der Universität. Anschließend werden Blockveranstaltungen angeboten.\n\nAchtung:\nIm Schwerpunktbereichsstudium dürfen insgesamt nur maximal zwei rechtsmedizinische und arztrechtliche Veranstaltungen des Insituts für Rechtsmedizin zur Erbringung des Pflichtprogramms gem. § 25 Abs. 3 genutzt werden!\n\n\n\n\n \n\nFür Studienanfänger wird eine spezielle dreitägige Orientierungsveranstaltung in der Woche vor Vorlesungsbeginn angeboten; Einzelheiten hierzu werden brieflich mitgeteilt. Für Fragen und Sorgen steht die Studienberatung des Fachbereichs für Studierende aller Semester zur Verfügung und zwar während der Vorlesungszeit Mo, Di, Do, 9.30-11.30 Uhr und Mi, 9.30-11.30 und 13.30-15.30 Uhr in den Räumen des Dekanats, für Berufstätige nach Vereinbarung.\nIn der vorlesungsfreien Zeit ausschließlich Mi 9.30-11.30 Uhr!\n\nDer Fachbereich bietet einen Aufbaustudiengang für im Ausland graduierte Juristinnen und Juristen (LL.M.), einen Aufbaustudiengang \"Europäisches und Internationales Wirtschaftsrecht\" (LL.M. Eur.), einen Weiterbildungsstudiengang \"Law and Finance\" (LL.M. Finance), ein Masterprogramm \"LL.M. Legal Theory\" sowie zusammen mit der Universität Lumière Lyon II das Studienprogramm zum französischen Recht \"Diplôme Universitaire de Droit Français\" (DUDF) an. Veranstaltungen zu den Studiengängen siehe Vorlesungsverzeichnis und Aushänge."
      }
    }
  ],
  "facets": [
    {
      "buckets": [
        {
          "count": 1,
          "key": "catalog"
        }
      ],
      "field": "type"
    },
    {
      "buckets": [
        {
          "count": 1,
          "key": "SoSe 2022"
        }
      ],
      "field": "academicTerm.acronym",
      "onlyOnType": "catalog"
    },
    {
      "buckets": [
        {
          "count": 1,
          "key": "university events"
        }
      ],
      "field": "categories",
      "onlyOnType": "catalog"
    },
    {
      "buckets": [
        {
          "count": 1,
          "key": "university events"
        }
      ],
      "field": "superCatalog.categories",
      "onlyOnType": "catalog"
    },
    {
      "buckets": [
        {
          "count": 1,
          "key": "university events"
        }
      ],
      "field": "superCatalogs.categories",
      "onlyOnType": "catalog"
    }
  ],
  "pagination": {
    "count": 1,
    "offset": 0,
    "total": 1
  },
  "stats": {
    "time": 2
  }
}
