{
  "filter": {
    "arguments": {
      "filters": [
        {
          "arguments": {
            "field": "type",
            "value": "date series"
          },
          "type": "value"
        },
        {
          "arguments": {
            "filters": [],
            "operation": "or"
          },
          "type": "boolean"
        }
      ],
      "operation": "and"
    },
    "type": "boolean"
  }
}
