<?xml version="1.0" encoding="UTF-8" standalone="no"?>
<!-- Created with Inkscape (http://www.inkscape.org/) -->

<svg
   width="512.0px"
   height="512.0px"
   viewBox="0 0 512.0 512.0"
   version="1.1"
   id="SVGRoot"
   sodipodi:docname="open stapps logo.svg"
   inkscape:version="1.2.1 (9c6d41e, 2022-07-14)"
   inkscape:export-filename="open stapps logo.png"
   inkscape:export-xdpi="12"
   inkscape:export-ydpi="12"
   xmlns:inkscape="http://www.inkscape.org/namespaces/inkscape"
   xmlns:sodipodi="http://sodipodi.sourceforge.net/DTD/sodipodi-0.dtd"
   xmlns:xlink="http://www.w3.org/1999/xlink"
   xmlns="http://www.w3.org/2000/svg"
   xmlns:svg="http://www.w3.org/2000/svg">
  <sodipodi:namedview
     id="namedview8110"
     pagecolor="#ffffff"
     bordercolor="#000000"
     borderopacity="0.25"
     inkscape:showpageshadow="2"
     inkscape:pageopacity="0.0"
     inkscape:pagecheckerboard="0"
     inkscape:deskcolor="#d1d1d1"
     inkscape:document-units="px"
     showgrid="true"
     inkscape:zoom="1.2938725"
     inkscape:cx="459.08698"
     inkscape:cy="288.66833"
     inkscape:window-width="1885"
     inkscape:window-height="1205"
     inkscape:window-x="0"
     inkscape:window-y="25"
     inkscape:window-maximized="0"
     inkscape:current-layer="layer1">
    <inkscape:grid
       type="xygrid"
       id="grid8116" />
  </sodipodi:namedview>
  <defs
     id="defs8105">
    <linearGradient
       inkscape:collect="always"
       xlink:href="#linearGradient3503"
       id="linearGradient3505"
       x1="162.21706"
       y1="187.50171"
       x2="247.46036"
       y2="272.08047"
       gradientUnits="userSpaceOnUse"
       gradientTransform="translate(0.44010091,-0.1467003)" />
    <linearGradient
       inkscape:collect="always"
       id="linearGradient3503">
      <stop
         style="stop-color:#e30e29;stop-opacity:1;"
         offset="0"
         id="stop3499" />
      <stop
         style="stop-color:#c50e1f;stop-opacity:1;"
         offset="1"
         id="stop3501" />
    </linearGradient>
    <linearGradient
       inkscape:collect="always"
       xlink:href="#linearGradient5926"
       id="linearGradient5928"
       x1="72.09816"
       y1="250.78897"
       x2="134.70792"
       y2="187.41574"
       gradientUnits="userSpaceOnUse"
       gradientTransform="translate(0.58680121,-0.1467003)" />
    <linearGradient
       inkscape:collect="always"
       id="linearGradient5926">
      <stop
         style="stop-color:#e4a400;stop-opacity:1;"
         offset="0"
         id="stop5922" />
      <stop
         style="stop-color:#f7a20b;stop-opacity:1;"
         offset="1"
         id="stop5924" />
    </linearGradient>
    <linearGradient
       inkscape:collect="always"
       xlink:href="#linearGradient1558-1"
       id="linearGradient1560"
       x1="163.75954"
       y1="161.59152"
       x2="201.65245"
       y2="122.10752"
       gradientUnits="userSpaceOnUse"
       gradientTransform="translate(-0.1467003,-0.58680121)" />
    <linearGradient
       id="linearGradient1558-1">
      <stop
         style="stop-color:#16f70b;stop-opacity:1;"
         offset="0"
         id="stop1562" />
      <stop
         style="stop-color:#3ee40b;stop-opacity:0.72941178;"
         offset="1"
         id="stop1564" />
    </linearGradient>
    <linearGradient
       inkscape:collect="always"
       xlink:href="#linearGradient1558"
       id="linearGradient3931"
       x1="134.69255"
       y1="160.14748"
       x2="26.188072"
       y2="51.411026"
       gradientUnits="userSpaceOnUse"
       gradientTransform="translate(-0.14670027,0.14670031)" />
    <linearGradient
       id="linearGradient1558">
      <stop
         style="stop-color:#00c8cc;stop-opacity:1;"
         offset="0"
         id="stop3985" />
      <stop
         style="stop-color:#00aacc;stop-opacity:1;"
         offset="1"
         id="stop3987" />
    </linearGradient>
  </defs>
  <g
     inkscape:label="Layer 1"
     inkscape:groupmode="layer"
     id="layer1">
    <g
       id="g8052"
       inkscape:label="Open StApps Logo"
       transform="matrix(2.2027819,0,0,2.2027819,-45.154721,-100.4331)">
      <rect
         style="display:inline;fill:url(#linearGradient3505);fill-opacity:1;stroke-width:0.846071"
         id="rect174-3-9"
         width="94.810326"
         height="93.852631"
         x="158.12198"
         y="183.05562"
         ry="12"
         inkscape:label="rect-r" />
      <rect
         style="display:inline;fill:url(#linearGradient5928);fill-opacity:1;stroke-width:0.655633"
         id="rect174-3"
         width="73.469917"
         height="72.727791"
         x="66.732887"
         y="182.95305"
         ry="12"
         inkscape:label="rect-o" />
      <rect
         style="display:inline;fill:url(#linearGradient1560);fill-opacity:1;stroke-width:0.429;stroke-dasharray:none"
         id="rect174-2"
         width="48.057831"
         height="47.572399"
         x="158.18253"
         y="117.63289"
         ry="12"
         inkscape:label="rect-g" />
      <rect
         style="fill:url(#linearGradient3931);fill-opacity:1;stroke-width:1.06825"
         id="rect174"
         width="119.70746"
         height="118.49828"
         x="20.498953"
         y="46.71262"
         ry="12"
         inkscape:label="rect-b" />
    </g>
  </g>
</svg>
